---
http_interactions:
- request:
    method: get
    uri: https://api.test.datacite.org/providers?query=university
    body:
      encoding: US-ASCII
      string: ''
    headers:
      User-Agent:
      - Mozilla/5.0 (compatible; Maremma/4.5; +https://github.com/datacite/maremma)
      Accept:
      - text/html,application/json,application/xml;q=0.9, text/plain;q=0.8,image/png,*/*;q=0.5
  response:
    status:
      code: 200
      message: OK
    headers:
      Date:
      - Tue, 10 Mar 2020 19:28:47 GMT
      Content-Type:
      - application/json; charset=utf-8
      Connection:
      - keep-alive
      Status:
      - 200 OK
      X-Anonymous-Consumer:
      - 'true'
      Cache-Control:
      - max-age=0, private, must-revalidate
      Vary:
      - Accept-Encoding, Origin
      X-Request-Id:
      - 0a6c478f-7e0f-48e2-a3a5-a854ffa5a7ff
      Etag:
      - W/"7fc0879187408ef0c127244276413e26"
      X-Runtime:
      - '0.086799'
      X-Powered-By:
      - Phusion Passenger 6.0.4
      Server:
      - nginx/1.14.0 + Phusion Passenger 6.0.4
    body:
      encoding: ASCII-8BIT
      string: '{"data":[{"id":"au","type":"providers","attributes":{"name":"American
        University","displayName":"American University","symbol":"AU","website":"https://american.edu","systemEmail":"datacite@american.edu","groupEmail":null,"description":null,"region":"AMER","country":"US","logoUrl":"https://assets.test.datacite.org/images/members/au.png?1583532391","memberType":"direct_member","organizationType":"academicInstitution","focusArea":"general","nonProfitStatus":"non-profit","isActive":true,"hasPassword":true,"joined":null,"rorId":null,"technicalContact":{},"secondaryTechnicalContact":{},"billingContact":{},"secondaryBillingContact":{},"serviceContact":{},"secondaryServiceContact":{},"votingContact":{},"created":"2018-10-26T16:47:09.000Z","updated":"2020-03-06T22:06:32.000Z"},"relationships":{"clients":{"data":[{"id":"au.dra","type":"clients"}]},"prefixes":{"data":[{"id":"10.33501","type":"prefixes"}]}}},{"id":"heallink","type":"providers","attributes":{"name":"Aristotle
        University HEAL-LINK Consortium","displayName":"Aristotle University HEAL-LINK
        Consortium","symbol":"HEALLINK","website":"https://www.datacite.org","systemEmail":"zsimaiof@lib.auth.gr","groupEmail":null,"description":null,"region":"EMEA","country":"GR","logoUrl":"/images/medium/missing.png","memberType":"consortium","organizationType":null,"focusArea":null,"nonProfitStatus":"non-profit","isActive":true,"hasPassword":true,"joined":null,"rorId":null,"technicalContact":{},"secondaryTechnicalContact":{},"billingContact":{},"secondaryBillingContact":{},"serviceContact":{},"secondaryServiceContact":{},"votingContact":{},"created":"2017-09-06T11:01:33.000Z","updated":"2019-05-24T09:53:32.000Z"},"relationships":{"clients":{"data":[{"id":"heallink.auth","type":"clients"},{"id":"heallink.datarep","type":"clients"},{"id":"heallink.datasc","type":"clients"},{"id":"heallink.upatras","type":"clients"}]},"prefixes":{"data":[{"id":"10.0350","type":"prefixes"},{"id":"10.0351","type":"prefixes"},{"id":"10.0352","type":"prefixes"},{"id":"10.33556","type":"prefixes"},{"id":"10.80157","type":"prefixes"}]},"consortiumOrganizations":{"data":[{"id":"tuc","type":"providers"},{"id":"onassis","type":"providers"}]}}},{"id":"auth","type":"providers","attributes":{"name":"Aristotle
        University of Thessaloniki","displayName":"Aristotle University of Thessaloniki","symbol":"AUTH","website":null,"systemEmail":"zsimaiof@gmail.com","groupEmail":"zsimaiof@gmail.com","description":null,"region":null,"country":null,"logoUrl":"/images/medium/missing.png","memberType":"consortium_organization","organizationType":null,"focusArea":null,"nonProfitStatus":"non-profit","isActive":true,"hasPassword":false,"joined":null,"rorId":null,"technicalContact":{},"secondaryTechnicalContact":{},"billingContact":{},"secondaryBillingContact":{},"serviceContact":{},"secondaryServiceContact":{},"votingContact":{},"created":"2019-10-04T08:23:15.000Z","updated":"2019-10-04T08:23:15.000Z"},"relationships":{"clients":{"data":[]},"prefixes":{"data":[]},"consortium":{"data":{"id":"healco","type":"providers"}}}},{"id":"hxmq","type":"providers","attributes":{"name":"Auburn
        University","displayName":"Auburn University","symbol":"HXMQ","website":null,"systemEmail":"alk0043@auburn.edu","groupEmail":null,"description":null,"region":null,"country":null,"logoUrl":"/images/medium/missing.png","memberType":"direct_member","organizationType":null,"focusArea":null,"nonProfitStatus":"non-profit","isActive":true,"hasPassword":true,"joined":null,"rorId":null,"technicalContact":{},"secondaryTechnicalContact":{},"billingContact":{},"secondaryBillingContact":{},"serviceContact":{},"secondaryServiceContact":{},"votingContact":{},"created":"2020-02-13T15:50:29.000Z","updated":"2020-02-29T10:21:54.000Z"},"relationships":{"clients":{"data":[{"id":"hxmq.ctpbks","type":"clients"}]},"prefixes":{"data":[{"id":"10.80234","type":"prefixes"}]}}},{"id":"blcu","type":"providers","attributes":{"name":"Beijing
        Language And Culture University","displayName":"Beijing Language And Culture
        University","symbol":"BLCU","website":"http://english.blcu.edu.cn/","systemEmail":"mjh123877@163.com","groupEmail":null,"description":null,"region":"APAC","country":"CN","logoUrl":"/images/medium/missing.png","memberType":"direct_member","organizationType":"nationalInstitution","focusArea":"general","nonProfitStatus":"non-profit","isActive":true,"hasPassword":false,"joined":null,"rorId":null,"technicalContact":{"email":"lilith@email.com","givenName":"fdsfdsfds","familyName":"dfsfdsfds"},"secondaryTechnicalContact":{},"billingContact":{},"secondaryBillingContact":{},"serviceContact":{"email":"lilith@email.com","givenName":"dfsfds","familyName":"fdssdf"},"secondaryServiceContact":{},"votingContact":{"email":"lilith@email.com","givenName":"dsffdd","familyName":"dsfdsffds"},"created":"2018-11-08T14:41:14.000Z","updated":"2019-05-22T09:41:34.000Z"},"relationships":{"clients":{"data":[{"id":"blcu.test","type":"clients"}]},"prefixes":{"data":[{"id":"10.33539","type":"prefixes"}]}}},{"id":"brand","type":"providers","attributes":{"name":"Brandon
        University","displayName":"Brandon University","symbol":"BRAND","website":null,"systemEmail":"Hurst@BrandonU.CA","groupEmail":null,"description":null,"region":"AMER","country":"CA","logoUrl":"/images/medium/missing.png","memberType":"consortium_organization","organizationType":null,"focusArea":null,"nonProfitStatus":"non-profit","isActive":true,"hasPassword":true,"joined":null,"rorId":null,"technicalContact":{},"secondaryTechnicalContact":{},"billingContact":{},"secondaryBillingContact":{},"serviceContact":{},"secondaryServiceContact":{},"votingContact":{},"created":"2020-02-13T20:28:30.000Z","updated":"2020-02-20T09:11:09.000Z"},"relationships":{"clients":{"data":[{"id":"brand.burep1","type":"clients"}]},"prefixes":{"data":[]},"consortium":{"data":{"id":"dcan","type":"providers"}}}},{"id":"brown","type":"providers","attributes":{"name":"Brown
        University Library","displayName":"Brown University Library","symbol":"BROWN","website":"https://library.brown.edu/","systemEmail":"bdr@brown.edu","groupEmail":null,"description":null,"region":null,"country":null,"logoUrl":"/images/medium/missing.png","memberType":"direct_member","organizationType":"academicInstitution","focusArea":"general","nonProfitStatus":"non-profit","isActive":true,"hasPassword":true,"joined":null,"rorId":"https://ror.org/05gq02987","technicalContact":{},"secondaryTechnicalContact":{},"billingContact":{},"secondaryBillingContact":{},"serviceContact":{},"secondaryServiceContact":{},"votingContact":{},"created":"2019-05-31T13:54:32.000Z","updated":"2019-08-13T14:29:25.000Z"},"relationships":{"clients":{"data":[{"id":"brown.bdr-test","type":"clients"}]},"prefixes":{"data":[{"id":"10.70139","type":"prefixes"}]}}},{"id":"capil","type":"providers","attributes":{"name":"Capilano
        University","displayName":"Capilano University","symbol":"CAPIL","website":null,"systemEmail":"eresources@capilanou.ca","groupEmail":null,"description":null,"region":"AMER","country":"CA","logoUrl":"/images/medium/missing.png","memberType":"consortium_organization","organizationType":null,"focusArea":null,"nonProfitStatus":"non-profit","isActive":true,"hasPassword":true,"joined":null,"rorId":null,"technicalContact":{},"secondaryTechnicalContact":{},"billingContact":{},"secondaryBillingContact":{},"serviceContact":{},"secondaryServiceContact":{},"votingContact":{},"created":"2020-02-07T15:44:22.000Z","updated":"2020-02-24T19:49:27.000Z"},"relationships":{"clients":{"data":[{"id":"capil.xguhil","type":"clients"}]},"prefixes":{"data":[]},"consortium":{"data":{"id":"dcan","type":"providers"}}}},{"id":"carle","type":"providers","attributes":{"name":"Carleton
        University","displayName":"Carleton University","symbol":"CARLE","website":null,"systemEmail":"valerie.critchley@carleton.ca","groupEmail":null,"description":null,"region":"AMER","country":"CA","logoUrl":"/images/medium/missing.png","memberType":"consortium_organization","organizationType":null,"focusArea":null,"nonProfitStatus":"non-profit","isActive":true,"hasPassword":true,"joined":null,"rorId":null,"technicalContact":{},"secondaryTechnicalContact":{},"billingContact":{},"secondaryBillingContact":{},"serviceContact":{},"secondaryServiceContact":{},"votingContact":{},"created":"2020-02-07T15:53:26.000Z","updated":"2020-02-14T20:47:07.000Z"},"relationships":{"clients":{"data":[{"id":"carle.culib","type":"clients"}]},"prefixes":{"data":[]},"consortium":{"data":{"id":"dcan","type":"providers"}}}},{"id":"cmu","type":"providers","attributes":{"name":"Carnegie
        Mellon University","displayName":"Carnegie Mellon University","symbol":"CMU","website":null,"systemEmail":"jkiritha@andrew.cmu.edu","groupEmail":null,"description":null,"region":"AMER","country":"US","logoUrl":"/images/medium/missing.png","memberType":"direct_member","organizationType":"academicInstitution","focusArea":"general","nonProfitStatus":"non-profit","isActive":true,"hasPassword":true,"joined":null,"rorId":null,"technicalContact":{},"secondaryTechnicalContact":{},"billingContact":{},"secondaryBillingContact":{},"serviceContact":{},"secondaryServiceContact":{},"votingContact":{},"created":"2019-04-25T16:53:14.000Z","updated":"2019-12-17T18:15:11.000Z"},"relationships":{"clients":{"data":[{"id":"cmu.lps-test","type":"clients"},{"id":"cmu.foo","type":"clients"},{"id":"cmu.bar","type":"clients"},{"id":"cmu.bil","type":"clients"}]},"prefixes":{"data":[{"id":"10.33566","type":"prefixes"},{"id":"10.70110","type":"prefixes"},{"id":"10.80117","type":"prefixes"}]}}},{"id":"carnegie","type":"providers","attributes":{"name":"Carnegie
        Mellon University Libraries","displayName":"Carnegie Mellon University Libraries","symbol":"CARNEGIE","website":"https://www.library.cmu.edu/","systemEmail":"kellen@cmu.edu","groupEmail":null,"description":null,"region":"AMER","country":"US","logoUrl":"/images/medium/missing.png","memberType":"direct_member","organizationType":"academicInstitution","focusArea":"general","nonProfitStatus":"non-profit","isActive":true,"hasPassword":true,"joined":null,"rorId":"https://ror.org/05x2bcf33","technicalContact":{},"secondaryTechnicalContact":{},"billingContact":{},"secondaryBillingContact":{},"serviceContact":{},"secondaryServiceContact":{},"votingContact":{},"created":"2019-02-27T22:38:36.000Z","updated":"2019-06-22T22:10:53.000Z"},"relationships":{"clients":{"data":[{"id":"carnegie.carnegie","type":"clients"}]},"prefixes":{"data":[{"id":"10.33579","type":"prefixes"}]}}},{"id":"coimbra","type":"providers","attributes":{"name":"Coimbra
        University","displayName":"Coimbra University","symbol":"COIMBRA","website":null,"systemEmail":"mjb@uc.pt","groupEmail":null,"description":null,"region":null,"country":null,"logoUrl":"/images/medium/missing.png","memberType":"direct_member","organizationType":null,"focusArea":null,"nonProfitStatus":"non-profit","isActive":true,"hasPassword":true,"joined":null,"rorId":null,"technicalContact":{},"secondaryTechnicalContact":{},"billingContact":{},"secondaryBillingContact":{},"serviceContact":{},"secondaryServiceContact":{},"votingContact":{},"created":"2019-12-02T16:29:09.000Z","updated":"2019-12-03T08:51:58.000Z"},"relationships":{"clients":{"data":[{"id":"coimbra.uc","type":"clients"}]},"prefixes":{"data":[{"id":"10.80120","type":"prefixes"}]}}},{"id":"csu","type":"providers","attributes":{"name":"Colorado
        State University","displayName":"Colorado State University","symbol":"CSU","website":"https://lib.colostate.edu/find/csu-digital-repository/","systemEmail":"mara.sedlins@colostate.edu","groupEmail":null,"description":null,"region":"AMER","country":"US","logoUrl":"/images/medium/missing.png","memberType":"consortium_organization","organizationType":"academicInstitution","focusArea":null,"nonProfitStatus":"non-profit","isActive":true,"hasPassword":true,"joined":null,"rorId":"https://ror.org/03k1gpj17","technicalContact":{},"secondaryTechnicalContact":{},"billingContact":{},"secondaryBillingContact":{},"serviceContact":{},"secondaryServiceContact":{},"votingContact":{},"created":"2019-10-04T15:19:31.000Z","updated":"2019-10-28T22:05:54.000Z"},"relationships":{"clients":{"data":[{"id":"csu.rep1","type":"clients"}]},"prefixes":{"data":[]},"consortium":{"data":{"id":"msco","type":"providers"}}}},{"id":"csul","type":"providers","attributes":{"name":"Colorado
        State University Libraries","displayName":"Colorado State University Libraries","symbol":"CSUL","website":null,"systemEmail":"Mark.Shelstad@colostate.edu","groupEmail":null,"description":null,"region":null,"country":null,"logoUrl":"/images/medium/missing.png","memberType":"direct_member","organizationType":null,"focusArea":null,"nonProfitStatus":"non-profit","isActive":true,"hasPassword":true,"joined":null,"rorId":null,"technicalContact":{},"secondaryTechnicalContact":{},"billingContact":{},"secondaryBillingContact":{},"serviceContact":{},"secondaryServiceContact":{},"votingContact":{},"created":"2017-09-04T08:36:14.000Z","updated":"2018-08-26T01:25:41.000Z"},"relationships":{"clients":{"data":[{"id":"csul.dr","type":"clients"}]},"prefixes":{"data":[{"id":"10.0348","type":"prefixes"},{"id":"10.0349","type":"prefixes"}]}}},{"id":"cul","type":"providers","attributes":{"name":"Columbia
        University Libraries","displayName":"Columbia University Libraries","symbol":"CUL","website":"https://www.columbia.edu","systemEmail":"vi2143@columbia.edu","groupEmail":null,"description":null,"region":"AMER","country":"US","logoUrl":"/images/medium/missing.png","memberType":"direct_member","organizationType":"academicInstitution","focusArea":"general","nonProfitStatus":"non-profit","isActive":true,"hasPassword":true,"joined":null,"rorId":"https://ror.org/00hj8s172","technicalContact":{},"secondaryTechnicalContact":{},"billingContact":{},"secondaryBillingContact":{},"serviceContact":{},"secondaryServiceContact":{},"votingContact":{},"created":"2018-11-16T14:55:52.000Z","updated":"2019-06-22T22:14:24.000Z"},"relationships":{"clients":{"data":[{"id":"cul.ciesin","type":"clients"},{"id":"cul.r2r","type":"clients"},{"id":"cul.columbia","type":"clients"},{"id":"cul.grg","type":"clients"},{"id":"cul.mill","type":"clients"}]},"prefixes":{"data":[{"id":"10.33552","type":"prefixes"},{"id":"10.33548","type":"prefixes"},{"id":"10.33547","type":"prefixes"},{"id":"10.33549","type":"prefixes"},{"id":"10.33555","type":"prefixes"}]}}},{"id":"cgl","type":"providers","attributes":{"name":"Computational
        Geometry Lab, Carleton University","displayName":"Computational Geometry Lab,
        Carleton University","symbol":"CGL","website":null,"systemEmail":"morin@scs.carleton.ca","groupEmail":null,"description":null,"region":"AMER","country":"CA","logoUrl":"/images/medium/missing.png","memberType":"consortium_organization","organizationType":null,"focusArea":null,"nonProfitStatus":"non-profit","isActive":true,"hasPassword":true,"joined":null,"rorId":null,"technicalContact":{},"secondaryTechnicalContact":{},"billingContact":{},"secondaryBillingContact":{},"serviceContact":{},"secondaryServiceContact":{},"votingContact":{},"created":"2020-02-07T16:09:03.000Z","updated":"2020-02-10T15:07:43.000Z"},"relationships":{"clients":{"data":[{"id":"cgl.cglab","type":"clients"}]},"prefixes":{"data":[]},"consortium":{"data":{"id":"dcan","type":"providers"}}}},{"id":"concor","type":"providers","attributes":{"name":"Concordia
        University","displayName":"Concordia University","symbol":"CONCOR","website":null,"systemEmail":"Danielle.Dennie@concordia.ca","groupEmail":null,"description":null,"region":"AMER","country":"CA","logoUrl":"/images/medium/missing.png","memberType":"consortium_organization","organizationType":null,"focusArea":null,"nonProfitStatus":"non-profit","isActive":true,"hasPassword":true,"joined":null,"rorId":null,"technicalContact":{},"secondaryTechnicalContact":{},"billingContact":{},"secondaryBillingContact":{},"serviceContact":{},"secondaryServiceContact":{},"votingContact":{},"created":"2020-02-07T16:17:24.000Z","updated":"2020-02-07T17:22:29.000Z"},"relationships":{"clients":{"data":[{"id":"concor.kcydcu","type":"clients"}]},"prefixes":{"data":[{"id":"10.80200","type":"prefixes"}]},"consortium":{"data":{"id":"dcan","type":"providers"}}}},{"id":"cornell","type":"providers","attributes":{"name":"Cornell
        University","displayName":"Cornell University","symbol":"CORNELL","website":null,"systemEmail":"ciser@cornell.edu","groupEmail":null,"description":null,"region":"AMER","country":"US","logoUrl":"/images/medium/missing.png","memberType":"direct_member","organizationType":null,"focusArea":null,"nonProfitStatus":"non-profit","isActive":true,"hasPassword":true,"joined":null,"rorId":null,"technicalContact":{},"secondaryTechnicalContact":{},"billingContact":{},"secondaryBillingContact":{},"serviceContact":{},"secondaryServiceContact":{},"votingContact":{},"created":"2019-03-11T10:48:28.000Z","updated":"2019-03-11T14:48:30.000Z"},"relationships":{"clients":{"data":[{"id":"cornell.library","type":"clients"},{"id":"cornell.ciser","type":"clients"}]},"prefixes":{"data":[{"id":"10.23657","type":"prefixes"},{"id":"10.23655","type":"prefixes"}]}}},{"id":"dalu","type":"providers","attributes":{"name":"Dalhousie
        University","displayName":"Dalhousie University","symbol":"DALU","website":null,"systemEmail":"Erin.MacPherson@dal.ca","groupEmail":null,"description":null,"region":"AMER","country":"CA","logoUrl":"/images/medium/missing.png","memberType":"consortium_organization","organizationType":"academicInstitution","focusArea":null,"nonProfitStatus":"non-profit","isActive":true,"hasPassword":true,"joined":null,"rorId":null,"technicalContact":{"email":"Ahmed.Mahdy@dal.ca","givenName":"Ahmed
        ","familyName":"Mahdy"},"secondaryTechnicalContact":{},"billingContact":{},"secondaryBillingContact":{},"serviceContact":{"email":"Erin.MacPherson@dal.ca","givenName":"Erin","familyName":"MacPherson"},"secondaryServiceContact":{"email":"Donna.bourne-tyson@dal.ca","givenName":"Donna","familyName":"Bourne-Tyson"},"votingContact":{},"created":"2020-02-07T16:20:04.000Z","updated":"2020-02-20T20:17:20.000Z"},"relationships":{"clients":{"data":[{"id":"dalu.dalloc","type":"clients"}]},"prefixes":{"data":[{"id":"10.80194","type":"prefixes"},{"id":"10.80192","type":"prefixes"}]},"consortium":{"data":{"id":"dcan","type":"providers"}}}},{"id":"dafi","type":"providers","attributes":{"name":"DataFirst
        University of Cape Town","displayName":"DataFirst University of Cape Town","symbol":"DAFI","website":null,"systemEmail":"lynn.woolfrey@uct.ac.za","groupEmail":null,"description":null,"region":null,"country":null,"logoUrl":"/images/medium/missing.png","memberType":"direct_member","organizationType":null,"focusArea":null,"nonProfitStatus":"non-profit","isActive":true,"hasPassword":false,"joined":null,"rorId":null,"technicalContact":{},"secondaryTechnicalContact":{},"billingContact":{},"secondaryBillingContact":{},"serviceContact":{},"secondaryServiceContact":{},"votingContact":{},"created":"2017-12-08T10:11:24.000Z","updated":"2018-08-26T01:25:41.000Z"},"relationships":{"clients":{"data":[{"id":"dafi.test","type":"clients"}]},"prefixes":{"data":[{"id":"10.24374","type":"prefixes"}]}}},{"id":"carr","type":"providers","attributes":{"name":"Emily
        Carr University of Art + Design","displayName":"Emily Carr University of Art
        + Design","symbol":"CARR","website":null,"systemEmail":"hillarywebb@ecuad.ca","groupEmail":null,"description":null,"region":"AMER","country":"CA","logoUrl":"/images/medium/missing.png","memberType":"consortium_organization","organizationType":null,"focusArea":null,"nonProfitStatus":"non-profit","isActive":true,"hasPassword":true,"joined":null,"rorId":null,"technicalContact":{},"secondaryTechnicalContact":{},"billingContact":{},"secondaryBillingContact":{},"serviceContact":{},"secondaryServiceContact":{},"votingContact":{},"created":"2020-02-13T20:26:36.000Z","updated":"2020-02-14T17:20:43.000Z"},"relationships":{"clients":{"data":[{"id":"carr.carr","type":"clients"}]},"prefixes":{"data":[]},"consortium":{"data":{"id":"dcan","type":"providers"}}}},{"id":"eiuc","type":"providers","attributes":{"name":"European
        Inter-University Centre for Human Rights and Democratisation","displayName":"European
        Inter-University Centre for Human Rights and Democratisation","symbol":"EIUC","website":null,"systemEmail":"nicola.tonon@eiuc.org","groupEmail":null,"description":null,"region":null,"country":null,"logoUrl":"/images/medium/missing.png","memberType":"direct_member","organizationType":null,"focusArea":null,"nonProfitStatus":"non-profit","isActive":true,"hasPassword":true,"joined":null,"rorId":null,"technicalContact":{},"secondaryTechnicalContact":{},"billingContact":{},"secondaryBillingContact":{},"serviceContact":{},"secondaryServiceContact":{},"votingContact":{},"created":"2017-01-17T13:59:13.000Z","updated":"2018-08-26T01:25:41.000Z"},"relationships":{"clients":{"data":[{"id":"eiuc.test","type":"clients"}]},"prefixes":{"data":[{"id":"10.0262","type":"prefixes"}]}}},{"id":"fiu","type":"providers","attributes":{"name":"Florida
        International University","displayName":"Florida International University","symbol":"FIU","website":"https://www.fiu.edu/","systemEmail":"dcc@fiu.edu","groupEmail":null,"description":null,"region":null,"country":null,"logoUrl":"/images/medium/missing.png","memberType":"direct_member","organizationType":null,"focusArea":null,"nonProfitStatus":"non-profit","isActive":true,"hasPassword":true,"joined":null,"rorId":"https://ror.org/02gz6gg07","technicalContact":{},"secondaryTechnicalContact":{},"billingContact":{},"secondaryBillingContact":{},"serviceContact":{},"secondaryServiceContact":{},"votingContact":{},"created":"2019-01-24T10:12:56.000Z","updated":"2019-08-08T17:21:40.000Z"},"relationships":{"clients":{"data":[{"id":"fiu.gis","type":"clients"}]},"prefixes":{"data":[{"id":"10.23674","type":"prefixes"}]}}},{"id":"rice","type":"providers","attributes":{"name":"Fondren
        Library, Rice University","displayName":"Fondren Library, Rice University","symbol":"RICE","website":null,"systemEmail":"sk60@rice.edu","groupEmail":null,"description":null,"region":null,"country":null,"logoUrl":"/images/medium/missing.png","memberType":"direct_member","organizationType":null,"focusArea":null,"nonProfitStatus":"non-profit","isActive":true,"hasPassword":true,"joined":null,"rorId":null,"technicalContact":{},"secondaryTechnicalContact":{},"billingContact":{},"secondaryBillingContact":{},"serviceContact":{},"secondaryServiceContact":{},"votingContact":{},"created":"2017-06-13T12:05:10.000Z","updated":"2018-08-26T01:25:41.000Z"},"relationships":{"clients":{"data":[{"id":"rice.kinder","type":"clients"},{"id":"rice.fondren","type":"clients"}]},"prefixes":{"data":[{"id":"10.0334","type":"prefixes"},{"id":"10.0335","type":"prefixes"}]}}},{"id":"ghsl","type":"providers","attributes":{"name":"Galter
        Health Sciences Library, Northwestern University","displayName":"Galter Health
        Sciences Library, Northwestern University","symbol":"GHSL","website":null,"systemEmail":"matthew.carson@northwestern.edu","groupEmail":null,"description":null,"region":null,"country":null,"logoUrl":"/images/medium/missing.png","memberType":"direct_member","organizationType":null,"focusArea":null,"nonProfitStatus":"non-profit","isActive":true,"hasPassword":false,"joined":null,"rorId":null,"technicalContact":{},"secondaryTechnicalContact":{},"billingContact":{},"secondaryBillingContact":{},"serviceContact":{},"secondaryServiceContact":{},"votingContact":{},"created":"2019-02-19T14:02:37.000Z","updated":"2019-02-19T14:02:37.000Z"},"relationships":{"clients":{"data":[]},"prefixes":{"data":[]}}}],"meta":{"total":104,"totalPages":5,"page":1,"years":[{"id":"2010","title":"2010","count":1},{"id":"2014","title":"2014","count":1},{"id":"2016","title":"2016","count":1},{"id":"2017","title":"2017","count":8},{"id":"2018","title":"2018","count":17},{"id":"2019","title":"2019","count":51},{"id":"2020","title":"2020","count":25}],"regions":[{"id":"amer","title":"Americas","count":49},{"id":"emea","title":"Europe,
        Middle East and Africa","count":7},{"id":"apac","title":"Asia and Pacific","count":5}],"memberTypes":[{"id":"consortium_organization","title":"Consortium
        Organization","count":51},{"id":"direct_member","title":"Direct Member","count":51},{"id":"consortium","title":"Consortium","count":2}],"organizationTypes":[{"id":"academicInstitution","title":"Academic
        Institution","count":40},{"id":"nationalInstitution","title":"National Institution","count":1},{"id":"researchInstitution","title":"Research
        Institution","count":1}],"focusAreas":[{"id":"general","title":"General","count":22},{"id":"agriculturalSciences","title":"Agricultural
        Sciences","count":1}],"nonProfitStatuses":[{"id":"non-profit","title":"Non
        Profit","count":104}]},"links":{"self":"https://api.test.datacite.org/providers?query=university","next":"https://api.test.datacite.org/providers?page%5Bnumber%5D=2&page%5Bsize%5D=25&query=university&sort%5Bname.raw%5D%5Border%5D=asc"}}'
    http_version: 
  recorded_at: Tue, 10 Mar 2020 19:28:47 GMT
recorded_with: VCR 2.9.3
