---
http_interactions:
- request:
    method: get
    uri: https://api.test.datacite.org/repositories?include=provider&page%5Bnumber%5D=1&page%5Bsize%5D=25&query=dryad
    body:
      encoding: US-ASCII
      string: ''
    headers:
      User-Agent:
      - Mozilla/5.0 (compatible; Maremma/4.7; +https://github.com/datacite/maremma)
      Accept:
      - text/html,application/json,application/xml;q=0.9, text/plain;q=0.8,image/png,*/*;q=0.5
  response:
    status:
      code: 200
      message: OK
    headers:
      Date:
      - Thu, 26 Mar 2020 08:48:34 GMT
      Content-Type:
      - application/json; charset=utf-8
      Connection:
      - keep-alive
      Status:
      - 200 OK
      X-Anonymous-Consumer:
      - 'true'
      Cache-Control:
      - max-age=0, private, must-revalidate
      Vary:
      - Accept-Encoding, Origin
      X-Request-Id:
      - 2ee38d82-a8e2-4f20-a3fa-14ed48c198e6
      Etag:
      - W/"6a4a9bb7ccf1b005116dad47a1538fd4"
      X-Runtime:
      - '0.053165'
      X-Powered-By:
      - Phusion Passenger 6.0.4
      Server:
      - nginx/1.14.0 + Phusion Passenger 6.0.4
    body:
      encoding: ASCII-8BIT
      string: '{"data":[{"id":"cdl.dryad","type":"repositories","attributes":{"name":"DRYAD","symbol":"CDL.DRYAD","re3data":"https://doi.org/10.17616/R34S33","opendoar":null,"year":2013,"systemEmail":"ryan@datadryad.org","alternateName":null,"description":"DataDryad.org
        is a curated general-purpose repository that makes the data underlying scientific
        publications discoverable, freely reusable, and citable.\r\nDryad is an international
        repository of data underlying peer-reviewed scientific and medical literature,
        particularly data for which no specialized repository exists. The content
        is considered to be integral to the published research. All material in Dryad
        is associated with a scholarly publication","clientType":"repository","repositoryType":[],"language":[],"certificate":[],"domains":"*","issn":null,"url":"https://datadryad.org","created":"2013-02-19T17:42:03.000Z","updated":"2018-11-24T16:58:38.000Z","isActive":true,"hasPassword":true,"serviceContact":{}},"relationships":{"provider":{"data":{"id":"cdl","type":"providers"}},"prefixes":{"data":[]}}},{"id":"dryad.dryad","type":"repositories","attributes":{"name":"DRYAD","symbol":"DRYAD.DRYAD","re3data":"https://doi.org/10.17616/R34S33","opendoar":null,"year":2018,"systemEmail":"admin@datadryad.org","alternateName":null,"description":null,"clientType":"repository","repositoryType":[],"language":[],"certificate":[],"domains":"*","issn":null,"url":"https://datadryad.org","created":"2018-04-24T17:32:32.000Z","updated":"2018-11-24T14:48:28.000Z","isActive":true,"hasPassword":true,"serviceContact":{}},"relationships":{"provider":{"data":{"id":"dryad","type":"providers"}},"prefixes":{"data":[{"id":"10.7959","type":"prefixes"}]}}}],"included":[{"id":"cdl","type":"providers","attributes":{"name":"California
        Digital Library","displayName":"California Digital Library","symbol":"CDL","website":null,"systemEmail":"gjanee@ucop.edu","groupEmail":null,"description":null,"region":"AMER","country":"US","logoUrl":"https://assets.test.datacite.org/images/members/data.png?1583232274","memberType":"direct_member","organizationType":"academicInstitution","focusArea":"general","nonProfitStatus":"non-profit","isActive":true,"hasPassword":true,"joined":null,"rorId":null,"technicalContact":{},"secondaryTechnicalContact":{},"billingContact":{},"secondaryBillingContact":{},"serviceContact":{},"secondaryServiceContact":{},"votingContact":{},"created":"2010-01-01T00:00:00.000Z","updated":"2020-03-03T10:44:34.000Z"},"relationships":{"clients":{"data":[{"id":"cdl.cdl","type":"clients"},{"id":"cdl.qdr","type":"clients"},{"id":"cdl.nceas","type":"clients"},{"id":"cdl.ucsb","type":"clients"},{"id":"cdl.ncar","type":"clients"},{"id":"cdl.usgs","type":"clients"},{"id":"cdl.ornl","type":"clients"},{"id":"cdl.ucla","type":"clients"},{"id":"cdl.nasagsfc","type":"clients"},{"id":"cdl.sdscot","type":"clients"},{"id":"cdl.digant","type":"clients"},{"id":"cdl.dplanet","type":"clients"},{"id":"cdl.labarch","type":"clients"},{"id":"cdl.uwl","type":"clients"},{"id":"cdl.ucm","type":"clients"},{"id":"cdl.sdscsg","type":"clients"},{"id":"cdl.lternet","type":"clients"},{"id":"cdl.aas","type":"clients"},{"id":"cdl.fhcrc","type":"clients"},{"id":"cdl.ciser","type":"clients"},{"id":"cdl.ucb","type":"clients"},{"id":"cdl.uclaeeb","type":"clients"},{"id":"cdl.ucsd","type":"clients"},{"id":"cdl.ucbcrcns","type":"clients"},{"id":"cdl.ucsdbio","type":"clients"},{"id":"cdl.uchig","type":"clients"},{"id":"cdl.ohsu","type":"clients"},{"id":"cdl.foo","type":"clients"},{"id":"cdl.bar","type":"clients"},{"id":"cdl.bar2","type":"clients"},{"id":"cdl.bar3","type":"clients"},{"id":"cdl.test","type":"clients"},{"id":"cdl.digsci","type":"clients"},{"id":"cdl.pisco","type":"clients"},{"id":"cdl.ucr","type":"clients"},{"id":"cdl.uoregon","type":"clients"},{"id":"cdl.nsidc","type":"clients"},{"id":"cdl.hri","type":"clients"},{"id":"cdl.osu","type":"clients"},{"id":"cdl.esip","type":"clients"},{"id":"cdl.ucsdcca","type":"clients"},{"id":"cdl.ucrbcoe","type":"clients"},{"id":"cdl.ucsdsspp","type":"clients"},{"id":"cdl.ucsflib","type":"clients"},{"id":"cdl.ucsfctsi","type":"clients"},{"id":"cdl.wsu","type":"clients"},{"id":"cdl.uma","type":"clients"},{"id":"cdl.uwcsde","type":"clients"},{"id":"cdl.uutah","type":"clients"},{"id":"cdl.ucsdooi","type":"clients"},{"id":"cdl.uci","type":"clients"},{"id":"cdl.jhu","type":"clients"},{"id":"cdl.rutgers","type":"clients"},{"id":"cdl.unavco","type":"clients"},{"id":"cdl.r2r","type":"clients"},{"id":"cdl.cmmap","type":"clients"},{"id":"cdl.biocode","type":"clients"},{"id":"cdl.peerj","type":"clients"},{"id":"cdl.earthref","type":"clients"},{"id":"cdl.noaa","type":"clients"},{"id":"cdl.utenn","type":"clients"},{"id":"cdl.ucsc","type":"clients"},{"id":"cdl.baer","type":"clients"},{"id":"cdl.benchfly","type":"clients"},{"id":"cdl.vtlib","type":"clients"},{"id":"cdl.dryad","type":"clients"},{"id":"cdl.rcidc","type":"clients"},{"id":"cdl.crbs","type":"clients"},{"id":"cdl.elrap","type":"clients"},{"id":"cdl.ucbling","type":"clients"},{"id":"cdl.cul","type":"clients"},{"id":"cdl.ucbmvz","type":"clients"},{"id":"cdl.bul","type":"clients"},{"id":"cdl.onelab","type":"clients"},{"id":"cdl.sagebio","type":"clients"},{"id":"cdl.caltech","type":"clients"},{"id":"cdl.broad","type":"clients"},{"id":"cdl.seismola","type":"clients"},{"id":"cdl.oneocean","type":"clients"},{"id":"cdl.iupui","type":"clients"},{"id":"cdl.uwesci","type":"clients"},{"id":"cdl.iris","type":"clients"},{"id":"cdl.uwcig","type":"clients"},{"id":"cdl.culis","type":"clients"},{"id":"cdl.nccs","type":"clients"},{"id":"cdl.ucsbagl","type":"clients"},{"id":"cdl.cams","type":"clients"},{"id":"cdl.renci","type":"clients"},{"id":"cdl.ucbits","type":"clients"},{"id":"cdl.nkn","type":"clients"},{"id":"cdl.dul","type":"clients"},{"id":"cdl.ucdirl","type":"clients"},{"id":"cdl.mdy","type":"clients"},{"id":"cdl.ciesin","type":"clients"},{"id":"cdl.ucbrit","type":"clients"},{"id":"cdl.issda","type":"clients"},{"id":"cdl.usgcrp","type":"clients"},{"id":"cdl.lcrnz","type":"clients"},{"id":"cdl.bsl","type":"clients"},{"id":"cdl.laleumbc","type":"clients"},{"id":"cdl.morphoba","type":"clients"},{"id":"cdl.ligo","type":"clients"},{"id":"cdl.wustl","type":"clients"},{"id":"cdl.tcia","type":"clients"},{"id":"cdl.statsrc","type":"clients"},{"id":"cdl.ual","type":"clients"},{"id":"cdl.writpro","type":"clients"},{"id":"cdl.lbnl","type":"clients"},{"id":"cdl.cchdo","type":"clients"},{"id":"cdl.lbnlomsi","type":"clients"},{"id":"cdl.usfws","type":"clients"},{"id":"cdl.iplant","type":"clients"},{"id":"cdl.cmu","type":"clients"},{"id":"cdl.noaa-gmd","type":"clients"},{"id":"cdl.odumunc","type":"clients"},{"id":"cdl.ucdavis","type":"clients"},{"id":"cdl.ucd-ssds","type":"clients"},{"id":"cdl.usu","type":"clients"},{"id":"cdl.acsess","type":"clients"},{"id":"cdl.crcl","type":"clients"},{"id":"cdl.unmlib","type":"clients"},{"id":"cdl.idashrep","type":"clients"},{"id":"cdl.gmu","type":"clients"},{"id":"cdl.datamare","type":"clients"},{"id":"cdl.uky","type":"clients"},{"id":"cdl.ocontext","type":"clients"},{"id":"cdl.eschol","type":"clients"},{"id":"cdl.dartlib","type":"clients"},{"id":"cdl.nuigal","type":"clients"},{"id":"cdl.mitlcp","type":"clients"},{"id":"cdl.mbfbio","type":"clients"},{"id":"cdl.umwlsl","type":"clients"},{"id":"cdl.ucblawlb","type":"clients"},{"id":"cdl.sbgeog","type":"clients"},{"id":"cdl.utaustin","type":"clients"},{"id":"cdl.d3r","type":"clients"},{"id":"cdl.crawdad","type":"clients"},{"id":"cdl.ieda","type":"clients"},{"id":"cdl.sbgrid","type":"clients"},{"id":"cdl.uwyo","type":"clients"},{"id":"cdl.vtti","type":"clients"},{"id":"cdl.msu","type":"clients"},{"id":"cdl.fdsn","type":"clients"},{"id":"cdl.morphoso","type":"clients"},{"id":"cdl.tacc","type":"clients"},{"id":"cdl.umiami","type":"clients"},{"id":"cdl.cos","type":"clients"},{"id":"cdl.aul","type":"clients"},{"id":"cdl.uoa","type":"clients"},{"id":"cdl.ica","type":"clients"},{"id":"cdl.nyu","type":"clients"},{"id":"cdl.pgerr","type":"clients"},{"id":"cdl.mla","type":"clients"},{"id":"cdl.pqr","type":"clients"},{"id":"cdl.libunc","type":"clients"},{"id":"cdl.re3data","type":"clients"},{"id":"cdl.dbmicld","type":"clients"},{"id":"cdl.stsci","type":"clients"},{"id":"cdl.databrar","type":"clients"},{"id":"cdl.uwisolab","type":"clients"},{"id":"cdl.wormbase","type":"clients"},{"id":"cdl.regenbas","type":"clients"},{"id":"cdl.seu","type":"clients"},{"id":"cdl.cns","type":"clients"},{"id":"cdl.icis","type":"clients"},{"id":"cdl.drxldata","type":"clients"},{"id":"cdl.pubref","type":"clients"},{"id":"cdl.openfmri","type":"clients"},{"id":"cdl.lucklab","type":"clients"},{"id":"cdl.pitt","type":"clients"},{"id":"cdl.ummscand","type":"clients"},{"id":"cdl.geer","type":"clients"},{"id":"cdl.facebase","type":"clients"},{"id":"cdl.isrd","type":"clients"},{"id":"cdl.boisesta","type":"clients"},{"id":"cdl.datactr1","type":"clients"},{"id":"cdl.datactr3","type":"clients"},{"id":"cdl.datactr2","type":"clients"},{"id":"cdl.lcc","type":"clients"},{"id":"cdl.aep","type":"clients"},{"id":"cdl.globus","type":"clients"},{"id":"cdl.uva","type":"clients"},{"id":"cdl.minorlab","type":"clients"},{"id":"cdl.eaei","type":"clients"},{"id":"cdl.arijourn","type":"clients"},{"id":"cdl.jppsjour","type":"clients"},{"id":"cdl.vampjour","type":"clients"},{"id":"cdl.sccoos","type":"clients"},{"id":"cdl.cdip","type":"clients"},{"id":"cdl.eblipjou","type":"clients"},{"id":"cdl.nist","type":"clients"},{"id":"cdl.ogc","type":"clients"},{"id":"cdl.hssajour","type":"clients"},{"id":"cdl.cpijourn","type":"clients"},{"id":"cdl.lbnljcap","type":"clients"},{"id":"cdl.simtk","type":"clients"},{"id":"cdl.lafcolli","type":"clients"},{"id":"cdl.emu","type":"clients"},{"id":"cdl.tdl","type":"clients"},{"id":"cdl.nsfadc","type":"clients"},{"id":"cdl.ssjourna","type":"clients"},{"id":"cdl.pcoejour","type":"clients"},{"id":"cdl.uclacee","type":"clients"},{"id":"cdl.ucolick","type":"clients"},{"id":"cdl.ucbbls","type":"clients"},{"id":"cdl.sdsulib","type":"clients"},{"id":"cdl.lbnlcesd","type":"clients"},{"id":"cdl.wmlib","type":"clients"},{"id":"cdl.sdsucs","type":"clients"},{"id":"cdl.orcid","type":"clients"},{"id":"cdl.cip","type":"clients"},{"id":"cdl.sep","type":"clients"},{"id":"cdl.dtic","type":"clients"},{"id":"cdl.invemar","type":"clients"},{"id":"cdl.siue","type":"clients"},{"id":"cdl.adaptive","type":"clients"},{"id":"cdl.uwb","type":"clients"},{"id":"cdl.vmc","type":"clients"},{"id":"cdl.gns","type":"clients"},{"id":"cdl.icrisat","type":"clients"},{"id":"cdl.tamul","type":"clients"},{"id":"cdl.eri","type":"clients"},{"id":"cdl.dit","type":"clients"},{"id":"cdl.pub","type":"clients"},{"id":"cdl.csc","type":"clients"},{"id":"cdl.immport","type":"clients"},{"id":"cdl.upennlib","type":"clients"},{"id":"cdl.ucnrs","type":"clients"},{"id":"cdl.vcu","type":"clients"},{"id":"cdl.ucsdhlab","type":"clients"},{"id":"cdl.caspo","type":"clients"},{"id":"cdl.dmphub","type":"clients"}]},"prefixes":{"data":[{"id":"10.5060","type":"prefixes"},{"id":"10.5061","type":"prefixes"},{"id":"10.5062","type":"prefixes"},{"id":"10.5063","type":"prefixes"},{"id":"10.5064","type":"prefixes"},{"id":"10.5065","type":"prefixes"},{"id":"10.5066","type":"prefixes"},{"id":"10.5067","type":"prefixes"},{"id":"10.5068","type":"prefixes"},{"id":"10.5069","type":"prefixes"},{"id":"10.5070","type":"prefixes"},{"id":"10.6067","type":"prefixes"},{"id":"10.6068","type":"prefixes"},{"id":"10.6069","type":"prefixes"},{"id":"10.6070","type":"prefixes"},{"id":"10.6071","type":"prefixes"},{"id":"10.6072","type":"prefixes"},{"id":"10.6073","type":"prefixes"},{"id":"10.6074","type":"prefixes"},{"id":"10.6075","type":"prefixes"},{"id":"10.6076","type":"prefixes"},{"id":"10.6077","type":"prefixes"},{"id":"10.6078","type":"prefixes"},{"id":"10.6079","type":"prefixes"},{"id":"10.6080","type":"prefixes"},{"id":"10.6081","type":"prefixes"},{"id":"10.6082","type":"prefixes"},{"id":"10.6083","type":"prefixes"},{"id":"10.6084","type":"prefixes"},{"id":"10.6085","type":"prefixes"},{"id":"10.6086","type":"prefixes"},{"id":"10.3334","type":"prefixes"},{"id":"10.7264","type":"prefixes"},{"id":"10.7265","type":"prefixes"},{"id":"10.7266","type":"prefixes"},{"id":"10.7267","type":"prefixes"},{"id":"10.7268","type":"prefixes"},{"id":"10.7269","type":"prefixes"},{"id":"10.7270","type":"prefixes"},{"id":"10.7271","type":"prefixes"},{"id":"10.7272","type":"prefixes"},{"id":"10.7273","type":"prefixes"},{"id":"10.7274","type":"prefixes"},{"id":"10.7275","type":"prefixes"},{"id":"10.7276","type":"prefixes"},{"id":"10.7277","type":"prefixes"},{"id":"10.7278","type":"prefixes"},{"id":"10.7279","type":"prefixes"},{"id":"10.7280","type":"prefixes"},{"id":"10.7281","type":"prefixes"},{"id":"10.7282","type":"prefixes"},{"id":"10.7283","type":"prefixes"},{"id":"10.7284","type":"prefixes"},{"id":"10.7285","type":"prefixes"},{"id":"10.7286","type":"prefixes"},{"id":"10.7287","type":"prefixes"},{"id":"10.7288","type":"prefixes"},{"id":"10.7289","type":"prefixes"},{"id":"10.7290","type":"prefixes"},{"id":"10.7291","type":"prefixes"},{"id":"10.7292","type":"prefixes"},{"id":"10.7293","type":"prefixes"},{"id":"10.7294","type":"prefixes"},{"id":"10.7295","type":"prefixes"},{"id":"10.7296","type":"prefixes"},{"id":"10.7297","type":"prefixes"},{"id":"10.7298","type":"prefixes"},{"id":"10.7299","type":"prefixes"},{"id":"10.7300","type":"prefixes"},{"id":"10.7301","type":"prefixes"},{"id":"10.7302","type":"prefixes"},{"id":"10.7303","type":"prefixes"},{"id":"10.4246","type":"prefixes"},{"id":"10.7907","type":"prefixes"},{"id":"10.7908","type":"prefixes"},{"id":"10.7909","type":"prefixes"},{"id":"10.7910","type":"prefixes"},{"id":"10.7911","type":"prefixes"},{"id":"10.7912","type":"prefixes"},{"id":"10.7913","type":"prefixes"},{"id":"10.7914","type":"prefixes"},{"id":"10.7915","type":"prefixes"},{"id":"10.7916","type":"prefixes"},{"id":"10.7917","type":"prefixes"},{"id":"10.7918","type":"prefixes"},{"id":"10.7919","type":"prefixes"},{"id":"10.7920","type":"prefixes"},{"id":"10.7921","type":"prefixes"},{"id":"10.7922","type":"prefixes"},{"id":"10.7923","type":"prefixes"},{"id":"10.7924","type":"prefixes"},{"id":"10.7925","type":"prefixes"},{"id":"10.7926","type":"prefixes"},{"id":"10.7927","type":"prefixes"},{"id":"10.7928","type":"prefixes"},{"id":"10.7929","type":"prefixes"},{"id":"10.7930","type":"prefixes"},{"id":"10.7931","type":"prefixes"},{"id":"10.7932","type":"prefixes"},{"id":"10.7933","type":"prefixes"},{"id":"10.7934","type":"prefixes"},{"id":"10.7935","type":"prefixes"},{"id":"10.7936","type":"prefixes"},{"id":"10.7937","type":"prefixes"},{"id":"10.7938","type":"prefixes"},{"id":"10.7939","type":"prefixes"},{"id":"10.7940","type":"prefixes"},{"id":"10.7941","type":"prefixes"},{"id":"10.7942","type":"prefixes"},{"id":"10.7943","type":"prefixes"},{"id":"10.7944","type":"prefixes"},{"id":"10.7945","type":"prefixes"},{"id":"10.7946","type":"prefixes"},{"id":"10.13022","type":"prefixes"},{"id":"10.13021","type":"prefixes"},{"id":"10.13026","type":"prefixes"},{"id":"10.13025","type":"prefixes"},{"id":"10.13024","type":"prefixes"},{"id":"10.13023","type":"prefixes"},{"id":"10.13028","type":"prefixes"},{"id":"10.13027","type":"prefixes"},{"id":"10.13018","type":"prefixes"},{"id":"10.15147","type":"prefixes"},{"id":"10.15146","type":"prefixes"},{"id":"10.15142","type":"prefixes"},{"id":"10.15143","type":"prefixes"},{"id":"10.15144","type":"prefixes"},{"id":"10.15145","type":"prefixes"},{"id":"10.15140","type":"prefixes"},{"id":"10.15141","type":"prefixes"},{"id":"10.15139","type":"prefixes"},{"id":"10.15138","type":"prefixes"},{"id":"10.1184","type":"prefixes"},{"id":"10.15788","type":"prefixes"},{"id":"10.15787","type":"prefixes"},{"id":"10.15786","type":"prefixes"},{"id":"10.15785","type":"prefixes"},{"id":"10.15784","type":"prefixes"},{"id":"10.15779","type":"prefixes"},{"id":"10.15780","type":"prefixes"},{"id":"10.15781","type":"prefixes"},{"id":"10.15782","type":"prefixes"},{"id":"10.15783","type":"prefixes"},{"id":"10.17612","type":"prefixes"},{"id":"10.17613","type":"prefixes"},{"id":"10.17610","type":"prefixes"},{"id":"10.17611","type":"prefixes"},{"id":"10.17616","type":"prefixes"},{"id":"10.17614","type":"prefixes"},{"id":"10.17615","type":"prefixes"},{"id":"10.17602","type":"prefixes"},{"id":"10.17603","type":"prefixes"},{"id":"10.17604","type":"prefixes"},{"id":"10.17605","type":"prefixes"},{"id":"10.17606","type":"prefixes"},{"id":"10.17607","type":"prefixes"},{"id":"10.17608","type":"prefixes"},{"id":"10.17609","type":"prefixes"},{"id":"10.17909","type":"prefixes"},{"id":"10.17908","type":"prefixes"},{"id":"10.17916","type":"prefixes"},{"id":"10.17915","type":"prefixes"},{"id":"10.17918","type":"prefixes"},{"id":"10.17917","type":"prefixes"},{"id":"10.17910","type":"prefixes"},{"id":"10.17912","type":"prefixes"},{"id":"10.17911","type":"prefixes"},{"id":"10.17914","type":"prefixes"},{"id":"10.17913","type":"prefixes"},{"id":"10.17920","type":"prefixes"},{"id":"10.18130","type":"prefixes"},{"id":"10.18131","type":"prefixes"},{"id":"10.18128","type":"prefixes"},{"id":"10.18127","type":"prefixes"},{"id":"10.18129","type":"prefixes"},{"id":"10.18125","type":"prefixes"},{"id":"10.18126","type":"prefixes"},{"id":"10.18123","type":"prefixes"},{"id":"10.18124","type":"prefixes"},{"id":"10.18121","type":"prefixes"},{"id":"10.18122","type":"prefixes"},{"id":"10.18120","type":"prefixes"},{"id":"10.18119","type":"prefixes"},{"id":"10.18118","type":"prefixes"},{"id":"10.18117","type":"prefixes"},{"id":"10.18116","type":"prefixes"},{"id":"10.18115","type":"prefixes"},{"id":"10.18114","type":"prefixes"},{"id":"10.18113","type":"prefixes"},{"id":"10.18112","type":"prefixes"},{"id":"10.18433","type":"prefixes"},{"id":"10.18434","type":"prefixes"},{"id":"10.18431","type":"prefixes"},{"id":"10.18432","type":"prefixes"},{"id":"10.18430","type":"prefixes"},{"id":"10.18435","type":"prefixes"},{"id":"10.18436","type":"prefixes"},{"id":"10.18437","type":"prefixes"},{"id":"10.18438","type":"prefixes"},{"id":"10.18439","type":"prefixes"},{"id":"10.18737","type":"prefixes"},{"id":"10.18736","type":"prefixes"},{"id":"10.18739","type":"prefixes"},{"id":"10.18738","type":"prefixes"},{"id":"10.18733","type":"prefixes"},{"id":"10.18732","type":"prefixes"},{"id":"10.18735","type":"prefixes"},{"id":"10.18734","type":"prefixes"},{"id":"10.18740","type":"prefixes"},{"id":"10.18741","type":"prefixes"},{"id":"10.20360","type":"prefixes"},{"id":"10.20361","type":"prefixes"},{"id":"10.20353","type":"prefixes"},{"id":"10.20354","type":"prefixes"},{"id":"10.20355","type":"prefixes"},{"id":"10.20356","type":"prefixes"},{"id":"10.20352","type":"prefixes"},{"id":"10.20357","type":"prefixes"},{"id":"10.20358","type":"prefixes"},{"id":"10.20359","type":"prefixes"},{"id":"10.21228","type":"prefixes"},{"id":"10.21229","type":"prefixes"},{"id":"10.21226","type":"prefixes"},{"id":"10.21227","type":"prefixes"},{"id":"10.21224","type":"prefixes"},{"id":"10.21225","type":"prefixes"},{"id":"10.21222","type":"prefixes"},{"id":"10.21223","type":"prefixes"},{"id":"10.21220","type":"prefixes"},{"id":"10.21221","type":"prefixes"},{"id":"10.21237","type":"prefixes"},{"id":"10.21238","type":"prefixes"},{"id":"10.21239","type":"prefixes"},{"id":"10.21233","type":"prefixes"},{"id":"10.21234","type":"prefixes"},{"id":"10.21235","type":"prefixes"},{"id":"10.21236","type":"prefixes"},{"id":"10.21230","type":"prefixes"},{"id":"10.21231","type":"prefixes"},{"id":"10.21430","type":"prefixes"},{"id":"10.21433","type":"prefixes"},{"id":"10.21431","type":"prefixes"},{"id":"10.21432","type":"prefixes"},{"id":"10.21420","type":"prefixes"},{"id":"10.21421","type":"prefixes"},{"id":"10.21422","type":"prefixes"},{"id":"10.21423","type":"prefixes"},{"id":"10.21424","type":"prefixes"},{"id":"10.21425","type":"prefixes"},{"id":"10.21426","type":"prefixes"},{"id":"10.21428","type":"prefixes"},{"id":"10.21429","type":"prefixes"},{"id":"10.21419","type":"prefixes"},{"id":"10.21417","type":"prefixes"},{"id":"10.21418","type":"prefixes"},{"id":"10.21416","type":"prefixes"},{"id":"10.21414","type":"prefixes"},{"id":"10.21970","type":"prefixes"},{"id":"10.21971","type":"prefixes"},{"id":"10.21972","type":"prefixes"},{"id":"10.21973","type":"prefixes"},{"id":"10.21974","type":"prefixes"},{"id":"10.21975","type":"prefixes"},{"id":"10.21976","type":"prefixes"},{"id":"10.21977","type":"prefixes"},{"id":"10.21978","type":"prefixes"},{"id":"10.21979","type":"prefixes"},{"id":"10.21969","type":"prefixes"},{"id":"10.21968","type":"prefixes"},{"id":"10.21992","type":"prefixes"},{"id":"10.21990","type":"prefixes"},{"id":"10.21991","type":"prefixes"},{"id":"10.21983","type":"prefixes"},{"id":"10.21984","type":"prefixes"},{"id":"10.21981","type":"prefixes"},{"id":"10.21982","type":"prefixes"},{"id":"10.21980","type":"prefixes"},{"id":"10.21989","type":"prefixes"},{"id":"10.21987","type":"prefixes"},{"id":"10.21988","type":"prefixes"},{"id":"10.21986","type":"prefixes"},{"id":"10.5195","type":"prefixes"},{"id":"10.80030","type":"prefixes"}]}}},{"id":"dryad","type":"providers","attributes":{"name":"Dryad","displayName":"Dryad","symbol":"DRYAD","website":"https://datadryad.org","systemEmail":"director@datadryad.org","groupEmail":null,"description":null,"region":null,"country":null,"logoUrl":null,"memberType":"direct_member","organizationType":null,"focusArea":null,"nonProfitStatus":"non-profit","isActive":true,"hasPassword":true,"joined":null,"rorId":null,"technicalContact":{},"secondaryTechnicalContact":{},"billingContact":{},"secondaryBillingContact":{},"serviceContact":{},"secondaryServiceContact":{},"votingContact":{},"created":"2018-04-11T18:18:05.000Z","updated":"2018-08-26T01:25:42.000Z"},"relationships":{"clients":{"data":[{"id":"dryad.dryad","type":"clients"},{"id":"dryad.cdl","type":"clients"}]},"prefixes":{"data":[{"id":"10.7959","type":"prefixes"},{"id":"10.7958","type":"prefixes"}]}}}],"meta":{"total":2,"totalPages":1,"page":1,"years":[{"id":"2013","title":"2013","count":1},{"id":"2018","title":"2018","count":1}],"providers":[{"id":"cdl","title":"California
        Digital Library","count":1},{"id":"dryad","title":"Dryad","count":1}],"clientTypes":[{"id":"repository","title":"Repository","count":2}],"repositoryTypes":[],"certificates":[],"software":[{"id":"dspace","title":"DSpace","count":1}]},"links":{"self":"https://api.test.datacite.org/repositories?include=provider&page%5Bnumber%5D=1&page%5Bsize%5D=25&query=dryad","next":"https://api.test.datacite.org/repositories?page%5Bnumber%5D=2&page%5Bsize%5D=25&query=dryad"}}'
    http_version: 
  recorded_at: Thu, 26 Mar 2020 08:48:34 GMT
recorded_with: VCR 2.9.3
