---
http_interactions:
- request:
    method: get
    uri: https://api.test.datacite.org/users?page%5Bnumber%5D=1&page%5Bsize%5D=25&query=smith
    body:
      encoding: US-ASCII
      string: ''
    headers:
      User-Agent:
      - Mozilla/5.0 (compatible; Maremma/4.7; +https://github.com/datacite/maremma)
      Accept:
      - text/html,application/json,application/xml;q=0.9, text/plain;q=0.8,image/png,*/*;q=0.5
  response:
    status:
      code: 200
      message: OK
    headers:
      Date:
      - Tue, 24 Mar 2020 19:59:25 GMT
      Content-Type:
      - application/json; charset=utf-8
      Connection:
      - keep-alive
      Status:
      - 200 OK
      X-Anonymous-Consumer:
      - 'true'
      Cache-Control:
      - max-age=0, private, must-revalidate
      Vary:
      - Accept-Encoding, Origin
      Referrer-Policy:
      - strict-origin-when-cross-origin
      X-Permitted-Cross-Domain-Policies:
      - none
      X-Xss-Protection:
      - 1; mode=block
      X-Request-Id:
      - 88481792-72f8-49b3-a078-8953af060784
      X-Download-Options:
      - noopen
      Etag:
      - W/"3bb697f18a26cf273ccf715dce211001"
      X-Frame-Options:
      - SAMEORIGIN
      X-Runtime:
      - '0.019390'
      X-Content-Type-Options:
      - nosniff
      X-Powered-By:
      - Phusion Passenger 6.0.4
      Server:
      - nginx/1.14.0 + Phusion Passenger 6.0.4
    body:
      encoding: ASCII-8BIT
      string: '{"data":[{"id":"0000-0002-5647-6417","type":"users","attributes":{"givenName":"Nilza","familyName":"Aples","name":"Justiz
        Smith","orcid":"https://orcid.org/0000-0002-5647-6417","github":null,"roleId":"user","isActive":false,"created":"2017-08-11T16:03:55.000Z","updated":"2017-08-11T16:04:35.000Z"},"relationships":{}},{"id":"0000-0003-0727-0479","type":"users","attributes":{"givenName":"Lauren","familyName":"Charles-Smith","name":"Lauren
        Charles-Smith","orcid":"https://orcid.org/0000-0003-0727-0479","github":null,"roleId":"user","isActive":false,"created":"2017-04-27T18:57:02.000Z","updated":"2017-04-27T18:57:03.000Z"},"relationships":{}},{"id":"0000-0003-4314-1877","type":"users","attributes":{"givenName":"Erica","familyName":"Darian-Smith","name":"Erica
        Darian-Smith","orcid":"https://orcid.org/0000-0003-4314-1877","github":null,"roleId":"user","isActive":false,"created":"2017-03-10T21:42:54.000Z","updated":"2017-03-10T21:42:54.000Z"},"relationships":{}},{"id":"0000-0002-2564-7359","type":"users","attributes":{"givenName":"Yvette","familyName":"Ehlers
        Smith","name":"Yvette Ehlers Smith","orcid":"https://orcid.org/0000-0002-2564-7359","github":null,"roleId":"user","isActive":false,"created":"2017-07-10T14:48:19.000Z","updated":"2017-07-10T14:48:19.000Z"},"relationships":{}},{"id":"0000-0001-9372-1381","type":"users","attributes":{"givenName":"Malcolm","familyName":"Ferguson-Smith","name":"Malcolm
        Ferguson-Smith","orcid":"https://orcid.org/0000-0001-9372-1381","github":null,"roleId":"user","isActive":false,"created":"2020-02-27T13:02:17.000Z","updated":"2020-02-27T13:02:17.000Z"},"relationships":{}},{"id":"0000-0002-0098-7656","type":"users","attributes":{"givenName":"Melinda","familyName":"Franettovich
        Smith","name":"Melinda Franettovich Smith","orcid":"https://orcid.org/0000-0002-0098-7656","github":null,"roleId":"user","isActive":false,"created":"2017-09-08T02:18:58.000Z","updated":"2017-09-08T02:18:58.000Z"},"relationships":{}},{"id":"0000-0003-1519-3661","type":"users","attributes":{"givenName":"Peter","familyName":"Godfrey-Smith","name":"Peter
        Godfrey-Smith","orcid":"https://orcid.org/0000-0003-1519-3661","github":null,"roleId":"user","isActive":false,"created":"2017-12-15T12:30:56.000Z","updated":"2017-12-15T12:30:56.000Z"},"relationships":{}},{"id":"0000-0001-5935-2690","type":"users","attributes":{"givenName":"Deanna","familyName":"Grant-Smith","name":"Deanna
        Grant-Smith","orcid":"https://orcid.org/0000-0001-5935-2690","github":null,"roleId":"user","isActive":false,"created":"2018-02-05T00:41:26.000Z","updated":"2018-02-05T00:41:26.000Z"},"relationships":{}},{"id":"0000-0001-9828-0933","type":"users","attributes":{"givenName":"Diana","familyName":"Gregory-Smith","name":"Diana
        Gregory-Smith","orcid":"https://orcid.org/0000-0001-9828-0933","github":null,"roleId":"user","isActive":false,"created":"2018-01-03T14:55:56.000Z","updated":"2018-01-03T14:56:05.000Z"},"relationships":{}},{"id":"0000-0002-4714-5480","type":"users","attributes":{"givenName":"Niall","familyName":"Hamilton-Smith","name":"Niall
        Hamilton-Smith","orcid":"https://orcid.org/0000-0002-4714-5480","github":null,"roleId":"user","isActive":false,"created":"2017-03-27T10:05:22.000Z","updated":"2017-03-27T10:05:22.000Z"},"relationships":{}},{"id":"0000-0002-5444-8623","type":"users","attributes":{"givenName":"Shannon","familyName":"Kipphut-Smith","name":"Shannon
        Kipphut-Smith","orcid":"https://orcid.org/0000-0002-5444-8623","github":null,"roleId":"user","isActive":false,"created":"2016-03-02T17:03:06.000Z","updated":"2016-03-02T17:03:06.000Z"},"relationships":{}},{"id":"0000-0003-0572-3980","type":"users","attributes":{"givenName":"Leah","familyName":"Lamale-Smith","name":"Leah
        Lamale-Smith","orcid":"https://orcid.org/0000-0003-0572-3980","github":null,"roleId":"user","isActive":false,"created":"2018-02-08T18:14:47.000Z","updated":"2018-02-08T18:14:47.000Z"},"relationships":{}},{"id":"0000-0003-1979-5520","type":"users","attributes":{"givenName":"Stephen","familyName":"Montgomery-Smith","name":"Stephen
        Montgomery-Smith","orcid":"https://orcid.org/0000-0003-1979-5520","github":null,"roleId":"user","isActive":false,"created":"2016-08-15T04:04:48.000Z","updated":"2016-08-15T04:05:50.000Z"},"relationships":{}},{"id":"0000-0003-4661-3024","type":"users","attributes":{"givenName":"Emma","familyName":"Rawlings
        Smith","name":"Emma Rawlings Smith","orcid":"https://orcid.org/0000-0003-4661-3024","github":null,"roleId":"user","isActive":false,"created":"2016-06-15T14:04:54.000Z","updated":"2016-06-15T14:04:54.000Z"},"relationships":{}},{"id":"0000-0003-0557-4225","type":"users","attributes":{"givenName":"Smith","familyName":"Reed","name":"Smith
        Reed","orcid":"https://orcid.org/0000-0003-0557-4225","github":null,"roleId":"user","isActive":false,"created":"2016-04-25T16:02:46.000Z","updated":"2016-04-25T16:02:46.000Z"},"relationships":{}},{"id":"0000-0003-3896-1483","type":"users","attributes":{"givenName":"Danica","familyName":"Schaffer-Smith","name":"Danica
        Schaffer-Smith","orcid":"https://orcid.org/0000-0003-3896-1483","github":null,"roleId":"user","isActive":false,"created":"2017-10-05T18:41:22.000Z","updated":"2017-10-05T18:41:22.000Z"},"relationships":{}},{"id":"0000-0002-5181-9521","type":"users","attributes":{"givenName":"Irene","familyName":"Skovgaard
        Smith","name":"Irene Skovgaard Smith","orcid":"https://orcid.org/0000-0002-5181-9521","github":null,"roleId":"user","isActive":false,"created":"2016-01-12T11:42:19.000Z","updated":"2016-01-12T11:42:19.000Z"},"relationships":{}},{"id":"0000-0003-2509-0092","type":"users","attributes":{"givenName":"Eleanor","familyName":"Smith","name":"Eleanor
        Smith","orcid":"https://orcid.org/0000-0003-2509-0092","github":null,"roleId":"user","isActive":false,"created":"2016-09-24T13:45:23.000Z","updated":"2016-09-24T13:45:33.000Z"},"relationships":{}},{"id":"0000-0002-0431-503X","type":"users","attributes":{"givenName":"Vanessa","familyName":"Smith","name":"Vanessa
        Smith","orcid":"https://orcid.org/0000-0002-0431-503X","github":null,"roleId":"user","isActive":false,"created":"2016-09-28T13:42:11.000Z","updated":"2016-09-28T13:42:11.000Z"},"relationships":{}},{"id":"0000-0002-0342-7742","type":"users","attributes":{"givenName":"Jason","familyName":"Smith","name":"Jason
        Smith","orcid":"https://orcid.org/0000-0002-0342-7742","github":null,"roleId":"user","isActive":false,"created":"2016-08-11T21:30:48.000Z","updated":"2016-08-11T21:31:08.000Z"},"relationships":{}},{"id":"0000-0002-4876-5403","type":"users","attributes":{"givenName":"Andrew","familyName":"Smith","name":"Andrew
        W M Smith","orcid":"https://orcid.org/0000-0002-4876-5403","github":null,"roleId":"user","isActive":false,"created":"2016-09-02T10:06:41.000Z","updated":"2016-09-02T10:07:01.000Z"},"relationships":{}},{"id":"0000-0003-3436-3718","type":"users","attributes":{"givenName":"Damon","familyName":"Smith","name":"Damon
        Smith","orcid":"https://orcid.org/0000-0003-3436-3718","github":null,"roleId":"user","isActive":false,"created":"2015-11-13T16:05:21.000Z","updated":"2015-11-13T16:05:21.000Z"},"relationships":{}},{"id":"0000-0002-5470-2142","type":"users","attributes":{"givenName":"Evan","familyName":"Smith","name":"Evan
        Smith","orcid":"https://orcid.org/0000-0002-5470-2142","github":null,"roleId":"user","isActive":false,"created":"2016-06-15T13:20:08.000Z","updated":"2016-06-15T13:22:52.000Z"},"relationships":{}},{"id":"0000-0002-7438-5498","type":"users","attributes":{"givenName":"Marcus","familyName":"Smith","name":"Marcus
        Smith","orcid":"https://orcid.org/0000-0002-7438-5498","github":null,"roleId":"user","isActive":false,"created":"2016-05-13T08:41:21.000Z","updated":"2016-05-13T08:41:21.000Z"},"relationships":{}},{"id":"0000-0003-4438-6470","type":"users","attributes":{"givenName":"Kenneth","familyName":"Smith","name":"Kenneth
        Smith","orcid":"https://orcid.org/0000-0003-4438-6470","github":null,"roleId":"user","isActive":false,"created":"2017-08-24T14:43:12.000Z","updated":"2017-08-24T14:43:12.000Z"},"relationships":{}}],"meta":{"total":134,"totalPages":6,"page":1},"links":{"self":"https://api.test.datacite.org/users?page%5Bnumber%5D=1&page%5Bsize%5D=25&query=smith","next":"https://api.test.datacite.org/users?page%5Bnumber%5D=2&page%5Bsize%5D=25&query=smith"}}'
    http_version: 
  recorded_at: Tue, 24 Mar 2020 19:59:25 GMT
recorded_with: VCR 2.9.3
