---
http_interactions:
- request:
    method: get
    uri: https://api.test.datacite.org/events?aggregations=query_aggregations,metrics_aggregations&extra=true&obj-id=https://doi.org/10.7272/q6g15xs4&relation-type-id=cites,is-cited-by,compiles,is-compiled-by,documents,is-documented-by,has-metadata,is-metadata-for,is-supplement-to,is-supplemented-by,is-derived-from,is-source-of,references,is-referenced-by,reviews,is-reviewed-by,requires,is-required-by,describes,is-described-by,unique-dataset-investigations-regular,total-dataset-investigations-regular,unique-dataset-requests-regular,total-dataset-requests-regular&source-id=datacite-related,datacite-crossref,crossref,datacite-usage,datacite-funder
    body:
      encoding: US-ASCII
      string: ''
    headers:
      User-Agent:
      - Mozilla/5.0 (compatible; Maremma/4.2.6; +https://github.com/datacite/maremma)
      Accept:
      - application/vnd.api+json; version=2
  response:
    status:
      code: 200
      message: OK
    headers:
      Date:
      - Sun, 06 Oct 2019 16:30:10 GMT
      Content-Type:
      - application/json; charset=utf-8
      Connection:
      - keep-alive
      Status:
      - 200 OK
      X-Anonymous-Consumer:
      - 'true'
      Cache-Control:
      - max-age=0, private, must-revalidate
      Vary:
      - Accept-Encoding, Origin
      Etag:
      - W/"ed1036f6a57a15b7bb6bc9ce9fbc9e98"
      X-Runtime:
      - '0.083321'
      X-Request-Id:
      - 447164f6-dde3-4be0-8921-9587e9373cdd
      X-Powered-By:
      - Phusion Passenger 6.0.4
      Server:
      - nginx/1.17.3 + Phusion Passenger 6.0.4
    body:
      encoding: ASCII-8BIT
      string: '{"data":[{"id":"ef894831-0376-4d00-9977-bbced1d0fcf7","type":"events","attributes":{"subjId":"https://api.test.datacite.org/reports/961e7eaa-7c3a-485a-85ed-94f94a535519","objId":"https://doi.org/10.7272/q6g15xs4","sourceId":"datacite-usage","relationTypeId":"total-dataset-requests-regular","total":6,"messageAction":"create","sourceToken":"43ba99ae-5cf0-11e8-9c2d-fa7ae01bbebc","license":"https://creativecommons.org/publicdomain/zero/1.0/","occurredAt":"2018-04-30T00:00:00.000Z","timestamp":"2018-09-05T18:21:34.860Z"}},{"id":"d4e00d29-2281-495e-8df5-05f3c4d50dc9","type":"events","attributes":{"subjId":"https://api.test.datacite.org/reports/961e7eaa-7c3a-485a-85ed-94f94a535519","objId":"https://doi.org/10.7272/q6g15xs4","sourceId":"datacite-usage","relationTypeId":"unique-dataset-requests-regular","total":4,"messageAction":"create","sourceToken":"43ba99ae-5cf0-11e8-9c2d-fa7ae01bbebc","license":"https://creativecommons.org/publicdomain/zero/1.0/","occurredAt":"2018-04-30T00:00:00.000Z","timestamp":"2018-09-05T18:21:34.912Z"}},{"id":"58ca1034-c512-4fb0-bfd6-0797f7506496","type":"events","attributes":{"subjId":"https://api.test.datacite.org/reports/961e7eaa-7c3a-485a-85ed-94f94a535519","objId":"https://doi.org/10.7272/q6g15xs4","sourceId":"datacite-usage","relationTypeId":"total-dataset-investigations-regular","total":38,"messageAction":"create","sourceToken":"43ba99ae-5cf0-11e8-9c2d-fa7ae01bbebc","license":"https://creativecommons.org/publicdomain/zero/1.0/","occurredAt":"2018-04-30T00:00:00.000Z","timestamp":"2018-09-05T18:21:34.964Z"}},{"id":"00fe8022-13b1-48e3-a1ad-e2fb720fd571","type":"events","attributes":{"subjId":"https://api.test.datacite.org/reports/961e7eaa-7c3a-485a-85ed-94f94a535519","objId":"https://doi.org/10.7272/q6g15xs4","sourceId":"datacite-usage","relationTypeId":"unique-dataset-investigations-regular","total":33,"messageAction":"create","sourceToken":"43ba99ae-5cf0-11e8-9c2d-fa7ae01bbebc","license":"https://creativecommons.org/publicdomain/zero/1.0/","occurredAt":"2018-04-30T00:00:00.000Z","timestamp":"2018-09-05T18:21:35.015Z"}},{"id":"3938ae55-d382-4262-9808-4b709ce9693a","type":"events","attributes":{"subjId":"https://api.test.datacite.org/reports/ee1a78aa-7c3e-485a-85ed-94f94a587715","objId":"https://doi.org/10.7272/q6g15xs4","sourceId":"datacite-usage","relationTypeId":"total-dataset-investigations-regular","total":85,"messageAction":"create","sourceToken":"43ba99ae-5cf0-11e8-9c2d-fa7ae01bbebc","license":"https://creativecommons.org/publicdomain/zero/1.0/","occurredAt":"2018-05-21T00:00:00.000Z","timestamp":"2018-09-05T18:21:55.659Z"}},{"id":"a2445b82-5a7a-4526-b9a3-d55f03edca37","type":"events","attributes":{"subjId":"https://api.test.datacite.org/reports/ee1a78aa-7c3e-485a-85ed-94f94a587715","objId":"https://doi.org/10.7272/q6g15xs4","sourceId":"datacite-usage","relationTypeId":"unique-dataset-investigations-regular","total":29,"messageAction":"create","sourceToken":"43ba99ae-5cf0-11e8-9c2d-fa7ae01bbebc","license":"https://creativecommons.org/publicdomain/zero/1.0/","occurredAt":"2018-05-21T00:00:00.000Z","timestamp":"2018-09-05T18:21:55.715Z"}},{"id":"b1903624-d32e-41e2-b053-288b8f829cd2","type":"events","attributes":{"subjId":"https://api.test.datacite.org/reports/961a78aa-7c3a-485a-85ed-94f94a587715","objId":"https://doi.org/10.7272/q6g15xs4","sourceId":"datacite-usage","relationTypeId":"total-dataset-investigations-regular","total":85,"messageAction":"create","sourceToken":"43ba99ae-5cf0-11e8-9c2d-fa7ae01bbebc","license":"https://creativecommons.org/publicdomain/zero/1.0/","occurredAt":"2018-05-21T00:00:00.000Z","timestamp":"2018-09-05T18:22:39.329Z"}},{"id":"86c578e7-5b90-4efd-814a-b01e8ebbf367","type":"events","attributes":{"subjId":"https://api.test.datacite.org/reports/961a78aa-7c3a-485a-85ed-94f94a587715","objId":"https://doi.org/10.7272/q6g15xs4","sourceId":"datacite-usage","relationTypeId":"unique-dataset-investigations-regular","total":29,"messageAction":"create","sourceToken":"43ba99ae-5cf0-11e8-9c2d-fa7ae01bbebc","license":"https://creativecommons.org/publicdomain/zero/1.0/","occurredAt":"2018-05-21T00:00:00.000Z","timestamp":"2018-09-05T18:22:39.389Z"}},{"id":"6b8354a3-1bf5-48a7-ab16-e94c93f6b711","type":"events","attributes":{"subjId":"https://api.test.datacite.org/reports/961e7e3a-7c31-485a-85ed-14f94e537319","objId":"https://doi.org/10.7272/q6g15xs4","sourceId":"datacite-usage","relationTypeId":"total-dataset-requests-regular","total":6,"messageAction":"create","sourceToken":"43ba99ae-5cf0-11e8-9c2d-fa7ae01bbebc","license":"https://creativecommons.org/publicdomain/zero/1.0/","occurredAt":"2018-04-30T00:00:00.000Z","timestamp":"2018-09-05T18:24:49.794Z"}},{"id":"f1e154c4-8e5f-4903-96ab-011f121aed60","type":"events","attributes":{"subjId":"https://api.test.datacite.org/reports/961e7e3a-7c31-485a-85ed-14f94e537319","objId":"https://doi.org/10.7272/q6g15xs4","sourceId":"datacite-usage","relationTypeId":"unique-dataset-requests-regular","total":4,"messageAction":"create","sourceToken":"43ba99ae-5cf0-11e8-9c2d-fa7ae01bbebc","license":"https://creativecommons.org/publicdomain/zero/1.0/","occurredAt":"2018-04-30T00:00:00.000Z","timestamp":"2018-09-05T18:24:49.850Z"}},{"id":"04a99b38-3f4f-4bb3-8454-1ca1042cacfd","type":"events","attributes":{"subjId":"https://api.test.datacite.org/reports/961e7e3a-7c31-485a-85ed-14f94e537319","objId":"https://doi.org/10.7272/q6g15xs4","sourceId":"datacite-usage","relationTypeId":"total-dataset-investigations-regular","total":38,"messageAction":"create","sourceToken":"43ba99ae-5cf0-11e8-9c2d-fa7ae01bbebc","license":"https://creativecommons.org/publicdomain/zero/1.0/","occurredAt":"2018-04-30T00:00:00.000Z","timestamp":"2018-09-05T18:24:49.908Z"}},{"id":"ec461fb3-3e13-4a10-92aa-45ec54bffd47","type":"events","attributes":{"subjId":"https://api.test.datacite.org/reports/961e7e3a-7c31-485a-85ed-14f94e537319","objId":"https://doi.org/10.7272/q6g15xs4","sourceId":"datacite-usage","relationTypeId":"unique-dataset-investigations-regular","total":33,"messageAction":"create","sourceToken":"43ba99ae-5cf0-11e8-9c2d-fa7ae01bbebc","license":"https://creativecommons.org/publicdomain/zero/1.0/","occurredAt":"2018-04-30T00:00:00.000Z","timestamp":"2018-09-05T18:24:49.964Z"}},{"id":"5d8ba004-d6c3-4fae-9711-7947dcf34069","type":"events","attributes":{"subjId":"https://api.test.datacite.org/reports/961a7eaa-7c3a-485a-85ed-94f94a535519","objId":"https://doi.org/10.7272/q6g15xs4","sourceId":"datacite-usage","relationTypeId":"total-dataset-requests-regular","total":6,"messageAction":"create","sourceToken":"43ba99ae-5cf0-11e8-9c2d-fa7ae01bbebc","license":"https://creativecommons.org/publicdomain/zero/1.0/","occurredAt":"2018-04-30T00:00:00.000Z","timestamp":"2018-09-05T18:26:42.674Z"}},{"id":"fcebdf09-f0dc-4bf6-8170-323fbc69922b","type":"events","attributes":{"subjId":"https://api.test.datacite.org/reports/961a7eaa-7c3a-485a-85ed-94f94a535519","objId":"https://doi.org/10.7272/q6g15xs4","sourceId":"datacite-usage","relationTypeId":"unique-dataset-requests-regular","total":4,"messageAction":"create","sourceToken":"43ba99ae-5cf0-11e8-9c2d-fa7ae01bbebc","license":"https://creativecommons.org/publicdomain/zero/1.0/","occurredAt":"2018-04-30T00:00:00.000Z","timestamp":"2018-09-05T18:26:42.736Z"}},{"id":"23330a7c-326f-444c-bcf0-5f6587804f50","type":"events","attributes":{"subjId":"https://api.test.datacite.org/reports/961a7eaa-7c3a-485a-85ed-94f94a535519","objId":"https://doi.org/10.7272/q6g15xs4","sourceId":"datacite-usage","relationTypeId":"total-dataset-investigations-regular","total":38,"messageAction":"create","sourceToken":"43ba99ae-5cf0-11e8-9c2d-fa7ae01bbebc","license":"https://creativecommons.org/publicdomain/zero/1.0/","occurredAt":"2018-04-30T00:00:00.000Z","timestamp":"2018-09-05T18:26:42.794Z"}},{"id":"e668f2ce-33c0-431b-abe4-a8347296fee3","type":"events","attributes":{"subjId":"https://api.test.datacite.org/reports/961a7eaa-7c3a-485a-85ed-94f94a535519","objId":"https://doi.org/10.7272/q6g15xs4","sourceId":"datacite-usage","relationTypeId":"unique-dataset-investigations-regular","total":33,"messageAction":"create","sourceToken":"43ba99ae-5cf0-11e8-9c2d-fa7ae01bbebc","license":"https://creativecommons.org/publicdomain/zero/1.0/","occurredAt":"2018-04-30T00:00:00.000Z","timestamp":"2018-09-05T18:26:42.855Z"}},{"id":"99f9f0f5-d368-43e2-87df-666bd753eccb","type":"events","attributes":{"subjId":"https://api.test.datacite.org/reports/22867b62-186e-4c38-bafa-e217c503cc71","objId":"https://doi.org/10.7272/q6g15xs4","sourceId":"datacite-usage","relationTypeId":"total-dataset-investigations-regular","total":31,"messageAction":"create","sourceToken":"43ba99ae-5cf0-11e8-9c2d-fa7ae01bbebc","license":"https://creativecommons.org/publicdomain/zero/1.0/","occurredAt":"2018-05-18T00:00:00.000Z","timestamp":"2018-09-05T18:28:44.228Z"}},{"id":"0b1e9b25-2f17-4840-b9ec-193233ded171","type":"events","attributes":{"subjId":"https://api.test.datacite.org/reports/22867b62-186e-4c38-bafa-e217c503cc71","objId":"https://doi.org/10.7272/q6g15xs4","sourceId":"datacite-usage","relationTypeId":"unique-dataset-investigations-regular","total":24,"messageAction":"create","sourceToken":"43ba99ae-5cf0-11e8-9c2d-fa7ae01bbebc","license":"https://creativecommons.org/publicdomain/zero/1.0/","occurredAt":"2018-05-18T00:00:00.000Z","timestamp":"2018-09-05T18:28:44.297Z"}},{"id":"9a91c128-0610-4f96-afd9-b0f1897914ab","type":"events","attributes":{"subjId":"https://api.test.datacite.org/reports/961e7eaa-7c3a-485a-85ed-94f94a537719","objId":"https://doi.org/10.7272/q6g15xs4","sourceId":"datacite-usage","relationTypeId":"total-dataset-requests-regular","total":6,"messageAction":"create","sourceToken":"43ba99ae-5cf0-11e8-9c2d-fa7ae01bbebc","license":"https://creativecommons.org/publicdomain/zero/1.0/","occurredAt":"2018-04-30T00:00:00.000Z","timestamp":"2018-09-05T18:30:58.997Z"}},{"id":"0ca6cdd3-4286-4dc0-ba0a-2c884249dd77","type":"events","attributes":{"subjId":"https://api.test.datacite.org/reports/961e7eaa-7c3a-485a-85ed-94f94a537719","objId":"https://doi.org/10.7272/q6g15xs4","sourceId":"datacite-usage","relationTypeId":"unique-dataset-requests-regular","total":4,"messageAction":"create","sourceToken":"43ba99ae-5cf0-11e8-9c2d-fa7ae01bbebc","license":"https://creativecommons.org/publicdomain/zero/1.0/","occurredAt":"2018-04-30T00:00:00.000Z","timestamp":"2018-09-05T18:30:59.076Z"}},{"id":"63a5a85c-bcf8-488f-a886-161847f31b48","type":"events","attributes":{"subjId":"https://api.test.datacite.org/reports/961e7eaa-7c3a-485a-85ed-94f94a537719","objId":"https://doi.org/10.7272/q6g15xs4","sourceId":"datacite-usage","relationTypeId":"total-dataset-investigations-regular","total":38,"messageAction":"create","sourceToken":"43ba99ae-5cf0-11e8-9c2d-fa7ae01bbebc","license":"https://creativecommons.org/publicdomain/zero/1.0/","occurredAt":"2018-04-30T00:00:00.000Z","timestamp":"2018-09-05T18:30:59.156Z"}},{"id":"87fb19ee-aff8-45ae-a24b-7f7843fafa31","type":"events","attributes":{"subjId":"https://api.test.datacite.org/reports/961e7eaa-7c3a-485a-85ed-94f94a537719","objId":"https://doi.org/10.7272/q6g15xs4","sourceId":"datacite-usage","relationTypeId":"unique-dataset-investigations-regular","total":33,"messageAction":"create","sourceToken":"43ba99ae-5cf0-11e8-9c2d-fa7ae01bbebc","license":"https://creativecommons.org/publicdomain/zero/1.0/","occurredAt":"2018-04-30T00:00:00.000Z","timestamp":"2018-09-05T18:30:59.268Z"}},{"id":"8120d856-3d3b-41a7-a430-baf0923d9d41","type":"events","attributes":{"subjId":"https://api.test.datacite.org/reports/961e7eaa-7c31-485a-85ed-94f94a537719","objId":"https://doi.org/10.7272/q6g15xs4","sourceId":"datacite-usage","relationTypeId":"total-dataset-requests-regular","total":6,"messageAction":"create","sourceToken":"43ba99ae-5cf0-11e8-9c2d-fa7ae01bbebc","license":"https://creativecommons.org/publicdomain/zero/1.0/","occurredAt":"2018-04-30T00:00:00.000Z","timestamp":"2018-09-05T18:33:00.673Z"}},{"id":"df5c52b2-c7ff-44b5-9bad-db11a7983ea7","type":"events","attributes":{"subjId":"https://api.test.datacite.org/reports/961e7eaa-7c31-485a-85ed-94f94a537719","objId":"https://doi.org/10.7272/q6g15xs4","sourceId":"datacite-usage","relationTypeId":"unique-dataset-requests-regular","total":4,"messageAction":"create","sourceToken":"43ba99ae-5cf0-11e8-9c2d-fa7ae01bbebc","license":"https://creativecommons.org/publicdomain/zero/1.0/","occurredAt":"2018-04-30T00:00:00.000Z","timestamp":"2018-09-05T18:33:00.753Z"}},{"id":"a911133b-11f2-42cf-9ed8-3887c9a24605","type":"events","attributes":{"subjId":"https://api.test.datacite.org/reports/961e7eaa-7c31-485a-85ed-94f94a537719","objId":"https://doi.org/10.7272/q6g15xs4","sourceId":"datacite-usage","relationTypeId":"total-dataset-investigations-regular","total":38,"messageAction":"create","sourceToken":"43ba99ae-5cf0-11e8-9c2d-fa7ae01bbebc","license":"https://creativecommons.org/publicdomain/zero/1.0/","occurredAt":"2018-04-30T00:00:00.000Z","timestamp":"2018-09-05T18:33:00.820Z"}}],"meta":{"total":70,"totalPages":3,"page":1,"sources":[{"id":"datacite-usage","title":"DataCite
        Usage Stats","count":70}],"prefixes":[{"id":"10.7272","title":"10.7272","count":70}],"citationTypes":[],"relationTypes":[{"id":"total-dataset-investigations-regular","title":"total-dataset-investigations-regular","count":666.0,"yearMonths":[{"id":"2018-04","title":"April
        2018","sum":391.0},{"id":"2018-05","title":"May 2018","sum":201.0},{"id":"2018-09","title":"September
        2018","sum":74.0}]},{"id":"unique-dataset-investigations-regular","title":"unique-dataset-investigations-regular","count":486.0,"yearMonths":[{"id":"2018-04","title":"April
        2018","sum":337.0},{"id":"2018-05","title":"May 2018","sum":82.0},{"id":"2018-09","title":"September
        2018","sum":67.0}]},{"id":"total-dataset-requests-regular","title":"total-dataset-requests-regular","count":66.0,"yearMonths":[{"id":"2018-04","title":"April
        2018","sum":65.0},{"id":"2018-09","title":"September 2018","sum":1.0}]},{"id":"unique-dataset-requests-regular","title":"unique-dataset-requests-regular","count":46.0,"yearMonths":[{"id":"2018-04","title":"April
        2018","sum":45.0},{"id":"2018-09","title":"September 2018","sum":1.0}]}],"pairings":[{"id":"datacite.cdl.ucsfctsi","title":"datacite.cdl.ucsfctsi","count":4,"registrants":[]}],"registrants":[{"id":"datacite.cdl.ucsfctsi","title":"datacite.cdl.ucsfctsi","count":4,"years":[{"id":"2018","title":"2018","sum":143.0}]}],"doisRelationTypes":[{"id":"https://doi.org/10.7272/q6g15xs4","title":"https://doi.org/10.7272/q6g15xs4","count":70,"relationTypes":[{"id":"total-dataset-investigations-regular","title":"total-dataset-investigations-regular","sum":666.0},{"id":"unique-dataset-investigations-regular","title":"unique-dataset-investigations-regular","sum":486.0},{"id":"total-dataset-requests-regular","title":"total-dataset-requests-regular","sum":66.0},{"id":"unique-dataset-requests-regular","title":"unique-dataset-requests-regular","sum":46.0}]}],"doisUsageTypes":[{"id":"https://doi.org/10.7272/q6g15xs4","title":"https://doi.org/10.7272/q6g15xs4","count":70,"relationTypes":[{"id":"total-dataset-investigations-regular","title":"total-dataset-investigations-regular","sum":666.0},{"id":"unique-dataset-investigations-regular","title":"unique-dataset-investigations-regular","sum":486.0},{"id":"total-dataset-requests-regular","title":"total-dataset-requests-regular","sum":66.0},{"id":"unique-dataset-requests-regular","title":"unique-dataset-requests-regular","sum":46.0}]}],"doisCitations":{"count":0.0,"years":[]},"citationsHistogram":{"count":0.0,"years":[]},"uniqueCitations":[],"uniqueNodes":{"objCount":null,"subjCount":null},"viewsHistogram":{"count":486.0,"yearMonths":[{"id":"2018-04","title":"April
        2018","sum":337.0},{"id":"2018-05","title":"May 2018","sum":82.0},{"id":"2018-09","title":"September
        2018","sum":67.0}]},"views":[{"id":"https://doi.org/10.7272/q6g15xs4","title":"https://doi.org/10.7272/q6g15xs4","count":19}],"downloadsHistogram":{"count":46.0,"yearMonths":[{"id":"2018-04","title":"April
        2018","sum":45.0},{"id":"2018-09","title":"September 2018","sum":1.0}]},"downloads":[{"id":"https://doi.org/10.7272/q6g15xs4","title":"https://doi.org/10.7272/q6g15xs4","count":16}]},"links":{"self":"https://api.test.datacite.org/events?aggregations=query_aggregations%2Cmetrics_aggregations&extra=true&obj-id=https%3A%2F%2Fdoi.org%2F10.7272%2Fq6g15xs4&relation-type-id=cites%2Cis-cited-by%2Ccompiles%2Cis-compiled-by%2Cdocuments%2Cis-documented-by%2Chas-metadata%2Cis-metadata-for%2Cis-supplement-to%2Cis-supplemented-by%2Cis-derived-from%2Cis-source-of%2Creferences%2Cis-referenced-by%2Creviews%2Cis-reviewed-by%2Crequires%2Cis-required-by%2Cdescribes%2Cis-described-by%2Cunique-dataset-investigations-regular%2Ctotal-dataset-investigations-regular%2Cunique-dataset-requests-regular%2Ctotal-dataset-requests-regular&source-id=datacite-related%2Cdatacite-crossref%2Ccrossref%2Cdatacite-usage%2Cdatacite-funder","next":"https://api.test.datacite.org/events?obj-id=https%3A%2F%2Fdoi.org%2F10.7272%2Fq6g15xs4&page%5Bnumber%5D=2&page%5Bsize%5D=25&relation-type-id=cites%2Cis-cited-by%2Ccompiles%2Cis-compiled-by%2Cdocuments%2Cis-documented-by%2Chas-metadata%2Cis-metadata-for%2Cis-supplement-to%2Cis-supplemented-by%2Cis-derived-from%2Cis-source-of%2Creferences%2Cis-referenced-by%2Creviews%2Cis-reviewed-by%2Crequires%2Cis-required-by%2Cdescribes%2Cis-described-by%2Cunique-dataset-investigations-regular%2Ctotal-dataset-investigations-regular%2Cunique-dataset-requests-regular%2Ctotal-dataset-requests-regular&source-id=datacite-related%2Cdatacite-crossref%2Ccrossref%2Cdatacite-usage%2Cdatacite-funder"}}'
    http_version: 
  recorded_at: Sun, 06 Oct 2019 16:30:10 GMT
recorded_with: VCR 2.9.3
